…
### Most Common Words

What are the most common words used in ABC headlines? Here we just taken a straight count of the words.

    ## # A tibble: 98,094 x 2
    ##    word          n
    ##    <chr>     <int>
    ##  1 police    35985
    ##  2 govt      16923
    ##  3 court     16380
    ##  4 council   16343
    ##  5 interview 15025
    ##  6 fire      13910
    ##  7 nsw       12912
    ##  8 australia 12353
    ##  9 plan      12307
    ## 10 water     11874
    ## # ... with 98,084 more rows
…
